Story Recipe: Severe Weather Damage in Texas - 01-Cleaning
…
Change types for some columns

First, I am making the damage columns become numbers I can compare. First, I am separating the unit (k,m,b) from the number.

separate_col_damage <- storms |> mutate(
  number1 = str_sub(DAMAGE_PROPERTY, end = -2),
  unit1 = str_sub(DAMAGE_PROPERTY, -1:-1),
  number2 = str_sub(DAMAGE_CROPS, end = -2),
  unit2 = str_sub(DAMAGE_CROPS, -1:-1)
)

separate_col_damage

# A tibble: 104,554 × 17
   EVENT_TYPE   BEGIN_DATE_TIME    END_DATE_TIME       YEAR INJURIES_DIRECT
   <chr>        <chr>              <chr>              <dbl>           <dbl>
 1 Winter Storm 25-JAN-00 00:00:00 28-JAN-00 00:00:00  2000               0
 2 Winter Storm 25-JAN-00 00:00:00 28-JAN-00 00:00:00  2000               0
 3 Winter Storm 25-JAN-00 00:00:00 28-JAN-00 00:00:00  2000               0
 4 Winter Storm 25-JAN-00 00:00:00 28-JAN-00 00:00:00  2000               0
 5 Winter Storm 25-JAN-00 00:00:00 28-JAN-00 00:00:00  2000               0
 6 Winter Storm 25-JAN-00 00:00:00 28-JAN-00 00:00:00  2000               0
 7 Winter Storm 25-JAN-00 00:00:00 28-JAN-00 00:00:00  2000               0
 8 Winter Storm 25-JAN-00 00:00:00 28-JAN-00 00:00:00  2000               0
 9 Winter Storm 25-JAN-00 00:00:00 28-JAN-00 00:00:00  2000               0
10 Winter Storm 25-JAN-00 00:00:00 28-JAN-00 00:00:00  2000               0
# ℹ 104,544 more rows
# ℹ 12 more variables: INJURIES_INDIRECT <dbl>, DEATHS_DIRECT <dbl>,
#   DEATHS_INDIRECT <dbl>, DAMAGE_PROPERTY <chr>, DAMAGE_CROPS <chr>,
#   CZ_TYPE <chr>, CZ_FIPS <dbl>, CZ_NAME <chr>, number1 <chr>, unit1 <chr>,
#   number2 <chr>, unit2 <chr>

Next, I am making the number columns numerals.

damage_col_num <- separate_col_damage |> mutate(
  number1 = as.numeric(number1),
  number2 = as.numeric(number2))
  
damage_col_num

# A tibble: 104,554 × 17
   EVENT_TYPE   BEGIN_DATE_TIME    END_DATE_TIME       YEAR INJURIES_DIRECT
   <chr>        <chr>              <chr>              <dbl>           <dbl>
 1 Winter Storm 25-JAN-00 00:00:00 28-JAN-00 00:00:00  2000               0
 2 Winter Storm 25-JAN-00 00:00:00 28-JAN-00 00:00:00  2000               0
 3 Winter Storm 25-JAN-00 00:00:00 28-JAN-00 00:00:00  2000               0
 4 Winter Storm 25-JAN-00 00:00:00 28-JAN-00 00:00:00  2000               0
 5 Winter Storm 25-JAN-00 00:00:00 28-JAN-00 00:00:00  2000               0
 6 Winter Storm 25-JAN-00 00:00:00 28-JAN-00 00:00:00  2000               0
 7 Winter Storm 25-JAN-00 00:00:00 28-JAN-00 00:00:00  2000               0
 8 Winter Storm 25-JAN-00 00:00:00 28-JAN-00 00:00:00  2000               0
 9 Winter Storm 25-JAN-00 00:00:00 28-JAN-00 00:00:00  2000               0
10 Winter Storm 25-JAN-00 00:00:00 28-JAN-00 00:00:00  2000               0
# ℹ 104,544 more rows
# ℹ 12 more variables: INJURIES_INDIRECT <dbl>, DEATHS_DIRECT <dbl>,
#   DEATHS_INDIRECT <dbl>, DAMAGE_PROPERTY <chr>, DAMAGE_CROPS <chr>,
#   CZ_TYPE <chr>, CZ_FIPS <dbl>, CZ_NAME <chr>, number1 <dbl>, unit1 <chr>,
#   number2 <dbl>, unit2 <chr>
Finally, I am using the units to multiple the number col and make a damage col with the actual values.

damage_col <- damage_col_num |> mutate(
  damage_val_prop = if_else(unit1 == "K", number1 * 1000, if_else(unit1 == "M", number1 * 1000000, if_else(unit1 == "B", number1 * 1000000000, number1 ))),
  damage_val_crop = if_else(unit2 == "K", number2 * 1000, if_else(unit2 == "M", number2 * 1000000, if_else(unit2 == "B", number2 * 1000000000, number1 )))
)

damage_col |> select(
  DAMAGE_PROPERTY,
  damage_val_prop,
  DAMAGE_CROPS,
  damage_val_crop
)

# A tibble: 104,554 × 4
   DAMAGE_PROPERTY damage_val_prop DAMAGE_CROPS damage_val_crop
   <chr>                     <dbl> <chr>                  <dbl>
 1 <NA>                         NA <NA>                      NA
 2 <NA>                         NA <NA>                      NA
 3 <NA>                         NA <NA>                      NA
 4 <NA>                         NA <NA>                      NA
 5 <NA>                         NA <NA>                      NA
 6 <NA>                         NA <NA>                      NA
 7 <NA>                         NA <NA>                      NA
 8 <NA>                         NA <NA>                      NA
 9 <NA>                         NA <NA>                      NA
10 <NA>                         NA <NA>                      NA
# ℹ 104,544 more rows
…
